"UserID";"CreatedAt";"Hide";"Email";"full_name";"mobile_number";"active";"password";"is_apple_user";"gender_name";"grade";"marital_status";"date_of_birth";"promo_code_id";"card_number";"school_name";"city_id";"renew_status";"subscription_status";"expiry_date";"barcode";"half_qr_code";"full_qr_code";"subscription_date";"renewal_date"
"12454";"2019-09-05 18:00:48.508190";"0";"a-tt-13815@hotmail.com";"Attea A ALzhrane";"555571474";"1";"0555571474";"0";"Male";"رجل اعمال حره";"Married";"-162702000000";"2931";"8185021902001374";"متعلم";"1339";"1";"1";"1599308522044";"710147";"710146";"710145";"2019-09-04 14:00:00";NULL
"12451";"2019-09-05 14:28:58.134472";"0";"aa-sma@hotmail.com";"Asmaa al zahrani";"567667444";"1";"0567667444";"0";"أنثى";"صاحبة المنشأة";"أعزب";"525560400000";"2932";"8185021902001373";"مؤسسة اسماء عطية الزهراني للتسويق الاكتروني ";"1339";"1";"1";"1599296151027";"710141";"710140";"710139";"2019-09-05 14:36:39.538857";NULL
"12401";"2019-08-07 13:50:31.541355";"0";"aaldelaim@savola.com";"Aqeel Ali Aldelaim";"540987872";"1";"k$$2BoCe#o";"0";"Male";"15";"Married";"645956431399";"2940";"8185021902001356";"Savola";"1337";"1";"1";"1596787941360";"79981";"79980";"79979";"2019-08-07 15:13:57.597745";NULL
"12439";"2019-08-21 12:30:05.768214";"0";"aamoudi@savola.com";"Anas Khalid Alamoudi";"551518877";"1";"Savola123";"0";"Male";"OD & Reward Sr. Manager";"Married";"615070800000";"2940";"8185021902001364";"Savola";"1337";"1";"1";"1597993163713";"710076";"710075";"710074";"2019-08-21 13:27:45.228128";NULL
"12402";"2019-08-07 16:53:06.446985";"0";"aanbar@savola.com";"Abdul Kareem Ahmad Anbar";"591408296";"1";"DJ*054ga6I";"0";"Male";"supervisor";"Married";"578316185167";"2940";"8185021902001357";"savola";"1337";"1";"1";"1596799336524";"79985";"79984";"79983";"2019-08-07 17:16:31.757112";NULL
"12440";"2019-08-22 14:35:16.090591";"0";"abdulaziz-alluqmani@hotmail.com";"Abdulaziz Nuwayfi Alluqmani";"505565196";"1";"An14931@";"0";"ذكر";"بكالوريس اداره اعمال دوليه";"متزوج";"396046800000";"2932";"8185021902001365";"موسسه عبدالعزيز اللقماني للنقل البري ";"1339";"1";"1";"1629622982176";"710083";"710082";"710081";"2019-08-22 15:25:21.169035";NULL
"12461";"2019-09-10 11:21:26.703311";"0";"abdullah--1984d@hotmail.com";"عبد الله حامد الخطابي";"544498474";"1";"aa@17422";"0";"Male";"مأمور تشغيل";"Married";"448955485299";"2926";"8185021902001382";"الشركة السعودية للنقل الجماعي";"1339";"1";"1";"1599716958153";"710182";"710181";"710180";"2019-09-10 12:53:31.042978";NULL
"12455";"2019-09-05 21:33:43.080368";"0";"abdullah.t.hakeem@gmail.com";"Abdullah Talal Hakeem";"544555032";"1";"@J&sLnvO-n";"0";"Male";"Accountant";"Married";"686505821247";"2926";"8185021902001378";"Naqaba";"1337";"1";"1";"1599321783227";"710165";"710164";"710163";"2019-09-08 15:03:42.962966";NULL
"12410";"2019-08-09 20:13:33.022660";"0";"abdullah14172@hotmail.com";"عبدالله احمد الفقيه";"598538081";"1";"Oo1234567";"0";"ذكر";"بكالوريوس";"أعزب";"836946000000";;NULL;"جامعة الملك عبدالعزيز";"1337";"0";"0";;NULL;NULL;NULL;NULL;NULL
"12406";"2019-08-09 18:07:38.651687";"0";"abdullah7akami@hotmail.com";"Abdullah Ali Hakami";"558481930";"1";"oMK74M(E6H";"0";"ذكر";"جامعي ";"أعزب";"724798800000";;NULL;"العدنان للمحاماة";"1337";"0";"0";"1596976614508";NULL;NULL;NULL;NULL;NULL
"12398";"2019-08-05 15:01:58.506162";"0";"abo-nwaf1995@hotmail.co";"Saleh alsrury";"505506697";"1";"0505506697";"0";"ذكر";"رجل اعمال";"متزوج";"-136350000000";"2931";"8185021902001354";"مؤسسة السروري ";"1339";"1";"1";"1596619877158";"79970";"79969";"79968";"2019-08-05 15:09:29.276459";NULL
"12505";"2019-10-10 17:48:36.400769";"0";"abohosen22232@hotmail.com";"علي حسين ال خريم";"557722232";"1";"A123456a";"0";"Male";"اخصائي اشتراكات وتصاديق";"Married";"413036316231";"2928";"8185021902001412";"غرفة مكة";"1339";"1";"1";"1602332237289";"710356";"710355";"710354";"2019-10-10 18:05:09.416596";NULL
"12361";"2019-07-25 13:10:55.279386";"0";"ahdabalhassani@gmail.com";"Ahdab al husani";"541133774";"1";"Ahdab_113";"0";"أنثى";"سيدة اعمال";"متزوج";"725662800000";"2932";"8185021902001322";"موسسة اهداب لوازم مناسبات";"1339";"1";"1";"1595662815923";"79816";"79815";"79814";"2019-07-25 13:11:46.496333";NULL
"12457";"2019-09-08 14:53:12.678088";"0";"ahlamfatai11@hotmail.com";"Ahlam Mohamed Fatani";"507987776";"1";"%#dne@6$$b";"0";"أنثى";"بكالوريس";"متزوج";"561157200000";"2932";"8185021902001377";"مطعم احلام محمد فطاني";"1339";"1";"1";"1599556810311";"710162";"710161";"710160";"2019-09-08 14:56:20.701089";NULL
"12368";"2019-07-26 00:41:46.453155";"0";"ahmad_ry@hotmail.com";"Ahmad Omar Ruhayyem";"506165616";"1";"KPvi#LAiw^";"0";"ذكر";"دبلوم";"متزوج";"404686800000";"2931";"8185021902001333";"مؤسسة بداية إنبار  للمقاولات";"1339";"1";"1";"1658776247799";"79873";"79872";"79871";"2019-07-28 15:23:26.520542";NULL
"12453";"2019-09-05 17:07:01.581593";"0";"ahmadalzbedi6@gmail.com";"Ahmed ibrahem alzbedi";"535223403";"1";"11223344";"0";"ذكر";"موظف اداري";"أعزب";"753051600000";"2926";"8185021902001376";"شركة ترابط للنقل";"1337";"1";"1";"1599305585973";"710154";"710153";"710152";"2019-09-05 18:31:20.804842";NULL
"12483";"2019-09-27 15:46:21.671767";"0";"ahmdi1950@hotmail.com";"علي حامد الأحمدي";"504773770";"1";"0504773770";"0";"Male";"مدير عام";"Married";"-615476619529";"2931";"8185021902001399";"مكتب تلال النماء";"1339";"1";"1";"1601201738948";"710278";"710277";"710276";"2019-09-29 13:13:27.952202";NULL
"12476";"2019-09-16 01:46:12.688158";"0";"ahmedshibany@hotmail.com";"Ahmed Emad Ahmed Saif Saeed";"0570771070";"1";"u&lpw-mt3G";"0";"Male";"3";"Single";"908830800000";;NULL;"Applied Sciences Private University";"1337";"0";"0";;NULL;NULL;NULL;NULL;NULL
"12462";"2019-09-10 13:45:08.908721";"0";"akf4144@gmail.com";"Abdullah";"554144207";"1";"2!4Dkv(Nmv";"0";"ذكر";"A";"متزوج";"659739600000";;NULL;"King abduaziz";"1345";"0";"0";"1599725679322";NULL;NULL;NULL;NULL;NULL
"12360";"2019-07-25 03:22:31.441141";"0";"Akhaled@savola.com";"AHMAD KHALED ALI";"0548870727";"1";"123123";"0";"Male";"14";"Married";"614984400000";"2940";"8185021902001327";"savola group";"1337";"1";"1";"1595624400000";"79839";"79838";"79837";"2019-07-25 18:03:25.541254";NULL
"12486";"2019-10-02 16:07:46.667407";"0";"ALi-017@outlook.sa";"Ali mohamd alzhrani";"555990803";"1";"3*!oIc^bKk";"0";"ذكر";"الثانويه";"متزوج";"707432400000";"2931";"8185021902001401";"مؤسسة علي الزهراني";"1339";"1";"1";"1601634919747";"710290";"710289";"710288";"2019-10-02 16:11:29.728495";NULL
"12394";"2019-08-03 12:11:50.261994";"0";"ali.nahary22@gmail.com";"علي احمد نهاري";"504545793";"1";"05i1@#du8n";"0";"Male";"رجل اعمال";"Married";"99729710297";"2932";"8185021902001351";"مؤسسة علي احمد نهاري";"1339";"1";"1";"1596436865240";"79954";"79953";"79952";"2019-08-04 12:53:47.383119";NULL
"12407";"2019-08-09 18:44:52.729710";"0";"Alii_gomosanii@hotmail.com";"Ali Mahmoud Gomosani";"0550075589";"1";"Gomos@ni123";"0";"Male";"Graduate";"Single";"729810000000";;"8185021901000110";"King Abdulaziz University";"1337";"1";"1";"1597698000000";"710033";"710032";"710031";"2019-08-18 16:46:15.559449";NULL
"12490";"2019-10-04 04:08:46.405071";"0";"alkabier@gmail.com";"عبدالله محمد حمدان الثبيتي";"505536732";"1";"-j^8xdltou";"0";"Male";"مدير";"Married";"686325210";"2932";"8185021902001404";"افاق الاحترافية";"1339";"1";"1";"1601764648354";"710310";"710309";"710308";"2019-10-06 13:23:41.139240";NULL
"12491";"2019-10-04 04:14:44.676696";"0";"alkabier22@gmail.com";"عبدالله الثبيتي";"505512991";"1";"26kjvMli0q";"0";"Male";"مدير";"Married";"686683537";;NULL;"أفاق الاحترافية";"1339";"0";"0";"1601765033476";NULL;NULL;NULL;NULL;NULL
"12465";"2019-09-10 20:43:38.040908";"0";"AlKhaldiMS@saptco.com.sa";"Muhamad Saed Alkhaldi";"500908823";"1";"0500908823";"0";"Male";"موارد بشرية";"Married";"325371600000";"2926";"8185021902001385";"الشركة السعودية لنقل الجماعي";"1337";"1";"1";"1599730384423";"710198";"710197";"710196";"2019-09-11 14:14:27.732589";NULL
"12424";"2019-08-11 22:43:11.513261";"0";"Alkhatib.hamdi@gmail.com";"Hamdi";"0554739024";"1";"bMfi+Gx+AA";"0";"ذكر";"Bachelor";"أعزب";"682376400000";"2938";NULL;"King Abdulaziz University";"1337";"0";"0";"1597093200000";NULL;NULL;NULL;NULL;NULL
"12416";"2019-08-10 06:17:42.028632";"0";"amal_alam33@hotmail.com";"Ahmed Othman Aman";"569166688";"1";"39koCd*!w#";"0";"Male";"Bachaori";"Married";"266792400000";;NULL;"King Abdulaziz University";"1337";"0";"0";"1660078800000";NULL;NULL;NULL;NULL;NULL
"12381";"2019-07-30 14:30:25.539874";"0";"amal9999@gmail.com";"Amal Yahia Alfifi";"541385153";"1";"bp2P1IiA^^";"0";"Female";"جامعيه";"Single";"938466000000";"2931";"8185021902001339";"مؤسسة امل ";"1339";"1";"1";"1596099562021";"79901";"79900";"79899";"2019-07-30 14:36:21.325357";NULL
"12415";"2019-08-10 00:58:44.620792";"0";"amer.com@outlook.com";"Amer marwan abdulshafi";"507147247";"1";"zbhC#e-eBn";"0";"ذكر";"بكالوريس علوم إدارية";"متزوج";"572821200000";"2938";NULL;"جامعة الملك عبدالعزيز";"1337";"0";"0";"1597001233761";NULL;NULL;NULL;NULL;NULL
"12438";"2019-08-21 12:24:17.961006";"0";"anas150@hotmail.com";"Anas Khalid Alamoudi";"551518877";"1";"cogp@fN2rm";"0";"Male";"OD & Reward Sr. Manager";"Married";"615070800000";"2940";NULL;"Savola";"1337";"0";"0";"1597992677877";NULL;NULL;NULL;NULL;NULL
"12432";"2019-08-19 12:04:00.836135";"0";"asadahmadabbasi@gmail.com";"s";"45676575675675";"1";"Lb8lnOI#fg";"0";"Male";"dg";"Single";"1564513200000";;NULL;"dgffd";"1347";"0";"0";"1629313200000";NULL;NULL;NULL;NULL;NULL
"12430";"2019-08-18 14:50:45.248739";"0";"asm.alghamdi1991@gmail.com";"Ahmed saleh alghamdi";"566222916";"1";"%9b)t-l$q&";"0";"ذكر";"مدير عام";"أعزب";"683931600000";"2932";"8185021902001358";"بوفية احمد صالح محمد الغامدي";"1339";"1";"1";"1597742439819";"710030";"710029";"710028";"2019-08-18 15:01:04.918986";NULL
"12489";"2019-10-03 12:34:09.076045";"0";"aybasyouni@savola.com";"Abdulrahman Yasser Basyouni";"506698437";"1";"brr4747mal4";"0";"Male";"CG, Legal, and Board Affairs Manager";"Married";"739227600000";"2940";"8185021902001403";"Savola Group";"1337";"1";"1";"1601708604909";"710299";"710298";"710297";"2019-10-03 12:44:02.228379";NULL
"12458";"2019-09-09 13:55:32.463154";"0";"azazi.1405h@gmail.com";"Abdulaziz Albikairy";"556373373";"1";"agAoNu8*2*";"0";"Male";"بكالوريوس";"Married";"523918800000";"2926";"8185011902001379";"Saptco";"1338";"1";"1";"1599639863995";"710169";"710168";"710167";"2019-09-09 14:06:14.546163";NULL
"12419";"2019-08-10 22:59:33.303753";"0";"badrbayazeed@hotmail.com";"Badr Ahmed Bayazeed";"0500503646";"1";"Badr1992";"0";"ذكر";"Bachelor";"أعزب";"707778000000";"2938";NULL;"King Abdulaziz University";"1339";"0";"0";;NULL;NULL;NULL;NULL;NULL
"12421";"2019-08-10 23:12:06.407977";"0";"Badrbayazeed92@gmail.com";"Badr Ahmed Bayazeed";"500503646";"1";"KqLv2MJDEo";"0";"ذكر";"Bachelor  ";"أعزب";"707778000000";"2938";NULL;"King Abdulaziz University";"1339";"0";"0";"1597081293126";NULL;NULL;NULL;NULL;NULL
"12472";"2019-09-12 15:38:21.197635";"0";"bashayer.alsmiri@gmail.com";"Bashayer al sumairi";"599552728";"1";"veO&eo)^G7";"0";"أنثى";"سيدة اعمال";"متزوج";"566686800000";"2932";"8185021902001390";"موسسة بشاير التجاريه ";"1339";"1";"1";"1599905279031";"710220";"710219";"710218";"2019-09-12 15:55:17.179378";NULL
"12502";"2019-10-10 07:37:40.998216";"0";"bebo-309@hotmail.com";"Bayan ahmed althaqafi";"539004309";"1";"gNdd6!ya7J";"0";"أنثى";"بكالوريس";"متزوج";"816123600000";;NULL;"جامعة ام القرى";"1339";"0";"0";"1602295632263";NULL;NULL;NULL;NULL;NULL
"12431";"2019-08-18 21:44:11.926727";"0";"bnb500bnb@gmail.com";"Farhan saud alsulami";"541999266";"1";"P3Fxr#itzD";"0";"ذكر";"بكالوريس";"أعزب";"678834000000";"2938";"8185021901000113";"جامعة الملك عبدالعزيز";"1337";"1";"1";"1597767208356";"710053";"710052";"710051";"2019-08-20 14:25:36.916466";NULL
"12463";"2019-09-10 13:50:25.958342";"0";"bxx1371@gmail.com";"Saad Hadi Alqahtani";"544292871";"1";"NonGff2xM8";"0";"Male";"مامور تشغيل ";"Single";"780267600000";"2926";"8185021902001383";"شركة سابتكو ";"1352";"1";"1";"1599725924274";"710187";"710186";"710185";"2019-09-10 15:47:44.268411";NULL
"12434";"2019-08-20 15:17:02.462063";"0";"bzuhufi@savola.com";"albaraa Alzuhufi";"566111910";"1";"!3MkiJF#nj";"0";"Male";"Forman";"Single";"619609621224";"2940";"8185021902001360";"Savola ";"1337";"1";"1";"1597916741995";"710057";"710056";"710055";"2019-08-20 15:31:32.408952";NULL
"12475";"2019-09-15 14:36:44.489254";"0";"cd11@hotmail.com";"Hassan E. Dukhan";"551616005";"1";"hd123456";"0";"Male";"Divison Head";"Married";"53946402535";"2926";"8185021902001394";"Naqaba";"1339";"1";"1";"1600160753786";"710237";"710236";"710235";"2019-09-15 14:39:17.202406";NULL
"12363";"2019-07-25 16:32:03.719481";"1";"d.madadha@gmail.com";"Dareen";"502037012";"0";"BaHG69h(9e";"0";"Female";"Higher Diploma";"Married";"593643600000";"2913";"8185021902001324";"Exclusave";"1337";"1";"1";"1595624400000";"79824";"79823";"79822";"2019-07-25 16:32:03.733461";NULL
"12450";"2019-09-03 14:53:36.598647";"0";"dodialafifi@gmail.com";"dodi";"535256482";"1";"4f8Op4jyaP";"0";"Female";"manager";"Single";"967886615793";"2940";"8185021902001372";"صافولا";"1337";"1";"1";"1599124981797";"710137";"710136";"710135";"2019-09-03 14:56:01.013530";NULL
"12484";"2019-09-29 14:46:41.210860";"0";"donsalem68@gmail.com";"Salem abdallah basher";"535533534";"1";"xtCaAuDnCc";"0";"ذكر";"مدير مبيعات ";"أعزب";"950734800000";;NULL;"شركة قطرات المحدودة";"1337";"0";"0";"1601370921209";NULL;NULL;NULL;NULL;NULL
"12498";"2019-10-08 11:50:46.419956";"0";"ehsangaroot04@gmail.com";"Ehssan Abdulrahman Qaroot";"544678975";"1";"gNLO(0#eIN";"0";"Male";"Field Observer";"Married";"30694845142";"2926";"8185021902001409";"General Syndicate of Cars";"1337";"1";"1";"1602138000652";"710341";"710340";"710339";"2019-10-08 18:53:10.220046";NULL
"12487";"2019-10-02 16:25:12.726341";"0";"Emaarhattin@gmail.com";"Khaled Al maliki";"558814323";"1";"Bvn9t2aGNh";"0";"أنثى";"بكالريوس";"متزوج";"236552400000";"2932";"8185021902001402";"الملك سعود ";"1339";"1";"1";"1601636023613";"710294";"710293";"710292";"2019-10-02 16:30:42.444685";NULL
"12364";"2019-07-25 16:43:06.829341";"0";"eng_dmadadha@yahoo.com";"Dareen Madadha";"920009819";"1";"JCLq#EHr6v";"0";"Female";"Higher Diploma";"Married";"593643600000";"2935";"8185021902001325";"Exclusave";"1337";"1";"1";"1595624400000";"79828";"79827";"79826";"2019-07-25 16:43:06.843505";NULL
"12435";"2019-08-20 15:52:43.318159";"0";"eng.alrougi@gmail.com";"Abdullah Soltan Alrougi";"566685339";"1";"(Mr8(HndKJ";"0";"Male";"Bachelor /mechanical engineer";"Single";"775688400000";"2940";"8185021902001363";"United Sugar Company";"1337";"1";"1";"1597917607727";"710070";"710069";"710068";"2019-08-20 16:25:52.269934";NULL
"12485";"2019-10-02 14:50:36.632006";"0";"eng.khalid86@hotmail.com";"Khalid Mohammed Zainulabdin ";"555514024";"1";"Kmz014245";"0";"ذكر";"مهندس كيميائي / مدير تنفيذي";"متزوج";"534891600000";"2933";"8185021902001400";"شركة مدى التموين التجارية";"1339";"1";"1";"1601630273285";"710285";"710284";"710283";"2019-10-02 15:54:32.912144";NULL
"12429";"2019-08-17 22:39:42.583018";"0";"essam.zahrani@hotmail.com";"Essam Mohammed Alzahrani";"566601591";"1";"h%b4&i1*1C";"0";"ذكر";"Bachelor art - COMMUNICATIONS&MEDIA In MASS COMMUNICATION PUBLIC RELATIONS";"متزوج";"494802000000";;NULL;"King Abdulaziz University (KAU)";"1337";"0";"0";;NULL;NULL;NULL;NULL;NULL
"12479";"2019-09-20 18:07:57.789995";"0";"fafooo1440@gmail.com";"فتو احمد فرج";"555670292";"1";"0555670292";"0";"Female";"الثانوية";"Married";"-379077723294";"2931";"8185021902001397";"مؤسسة فتو أحمد فرج";"1339";"1";"1";"1600605348113";"710264";"710263";"710262";"2019-09-22 13:47:28.638958";NULL
"12497";"2019-10-08 03:22:26.481102";"0";"Faha0d0@hotmail.com";"Fahad saud Almsaudi";"555520627";"1";")$k%D-swg@";"0";"ذكر";"الدرجه الثالثة";"متزوج";"463870800000";"2931";"8185021902001407";"موسسة مقاولات عامة";"1339";"1";"1";"1602107373905";"710332";"710331";"710330";"2019-10-08 13:13:57.331401";NULL
"12387";"2019-07-31 15:42:08.972241";"1";"fatimaksa3@gmail.com";"fatima zahrani";"555474585";"0";"hop!Og!qbE";"0";"Female";"سيدة اعمال";"Married";"520942316218";"2932";"8185021902001348";"مركز رواد العلم";"1339";"1";"1";"1596190232075";"79941";"79940";"79939";"2019-08-01 16:32:02.481870";NULL
"12422";"2019-08-11 10:10:05.337053";"0";"fawaz6-0@hotmail.com";"Abu Faisal";"502461168";"1";"PBr6py)&B%";"0";"ذكر";"Bachelor";"متزوج";"590446800000";;NULL;"King Abdulaziz University";"1358";"0";"0";;NULL;NULL;NULL;NULL;NULL
"12464";"2019-09-10 16:41:50.138991";"0";"fff22222fff@gmail.com";"فهد حسين القحطاني";"535588834";"1";"IELIE9l*x3";"0";"Male";"مأمور تشغيل";"Married";"388962000000";"2926";"8185051902001384";"شركة سابتكو للنقل الجماعي";"1372";"1";"1";"1599685200000";"710192";"710191";"710190";"2019-09-10 16:41:50.153421";NULL
"12492";"2019-10-05 18:36:42.161130";"0";"fifa6040@hotmail.com";"atar fifa";"506696040";"1";"wDup+x9pab";"0";"ذكر";"man";"أعزب";"181688400000";;NULL;"fifa";"1337";"0";"0";"1601903173967";NULL;NULL;NULL;NULL;NULL
"12399";"2019-08-05 22:43:22.330248";"0";"fofo.411@hotmail.com";"وفاء فالح العتيبي";"0560865411";"1";"yBlJFowIlu";"0";"Female";"مشرفه";"Married";"544222800000";"2935";"8185021901000114";"شركة جمجوم فارما";"1337";"1";"1";"1598302800000";"710103";"710102";"710101";"2019-08-25 12:48:21.553432";NULL
"12411";"2019-08-09 22:36:49.885767";"0";"fofo20129@hotmail.com";"فهد علي الشهري";"0581110095";"1";"l3Iy&pfp00";"0";"ذكر";"بكالورويس";"متزوج";"585608400000";;NULL;"جامعه الملك عبدالعزيز";"1337";"0";"0";;NULL;NULL;NULL;NULL;NULL
"12437";"2019-08-20 16:19:45.809938";"0";"fox7y7@gmail.com";"Yahya abdulaziz ibrahim";"543326656";"1";"2M)1i$Ocm*";"0";"ذكر";"ثانوي";"أعزب";"822949200000";"2933";"8185021902001362";"شركة الشفق الاحمر التجارية";"1339";"1";"1";"1597920315271";"710067";"710066";"710065";"2019-08-20 16:22:15.602974";NULL
"12425";"2019-08-13 15:48:10.237246";"0";"Froose-4747@hotmail.com";"Faris";"0568385337";"1";"N(sj%M6Ghp";"0";"ذكر";"باكلوريوس";"متزوج";"821826000000";"2938";NULL;"جامعة الملك عبدالعزيز";"1337";"0";"0";;NULL;NULL;NULL;NULL;NULL
"12377";"2019-07-29 13:53:40.601033";"0";"fyamanif17@hotmail.com";"Faris faisal alyamani";"555515177";"1";"faros177";"0";"Male";"رجل اعمال";"Single";"985208400000";"2932";"8185021902001335";"ورشة فارس ";"1339";"1";"1";"1596010958219";"79881";"79880";"79879";"2019-07-29 13:55:20.069248";NULL
"12470";"2019-09-12 02:42:05.775812";"0";"ghzala10@hotmail.com";"Ghazal Adnan Radnah";"530044464";"1";"L18A+As)z8";"0";"Female";"الجامعة / سيدة أعمال";"Married";"473374800000";"2932";"8185021902001389";"أستديو غزل للتصوير النسائي";"1339";"1";"1";"1694466716015";"710216";"710215";"710214";"2019-09-12 13:17:33.873643";NULL
"12365";"2019-07-25 16:47:55.617008";"0";"glkxce-000-2010@hotmail.com";"Mohammed Attas";"560611137";"1";"twic-+i%C3";"0";"Male";"رجل اعمال";"Married";"470523600000";"2932";"8185021902001326";"ورشة محمد العطاس لخدمات السيارات";"1339";"1";"1";"1595675857668";"79833";"79832";"79831";"2019-07-25 16:54:26.325980";NULL
"12409";"2019-08-09 19:10:20.090980";"0";"Hani-266@hotmail.com";"هاني الحسيني";"506564471";"1";"Fa@P&gae#z";"0";"ذكر";"بكلريوس";"متزوج";"549147600000";"2938";NULL;"الملك عبدالعزيز";"1365";"0";"0";"1659992400000";NULL;NULL;NULL;NULL;NULL
"12500";"2019-10-08 13:30:29.587287";"0";"hani-t55@hotmail.com";"HANI TAHA MAHDE";"598686956";"1";"iI-N#EPJ^1";"0";"ذكر";"دبلوم";"متزوج";"397602000000";"2931";"8185021902001408";"A";"1339";"1";"1";"1602143870167";"710336";"710335";"710334";"2019-10-08 13:31:49.827421";NULL
"12442";"2019-08-22 16:25:36.596323";"0";"hmzh2@hotmail.com";"abdultif hassan alzahrani";"555568694";"1";"hmzh1399";"0";"ذكر";"diploma";"متزوج";"296600400000";"2932";"8185021902001367";"abdultif hassan alzahrani.est";"1339";"1";"1";"1598093615236";"710091";"710090";"710089";"2019-08-22 16:26:24.300736";NULL
"12452";"2019-09-05 16:56:15.894126";"0";"ii46@hotmail.com";"Mohammad jamal alshtewi";"567995327";"1";"AE+9Di%+6N";"0";"Male";"CFO";"Married";"453243600000";"2926";"8185021902001375";"Prince of sea company";"1337";"1";"1";"1599305101094";"710151";"710150";"710149";"2019-09-05 18:31:03.215881";NULL
"12499";"2019-10-08 11:57:09.440468";"0";"iqaroot@naqaba.com.sa";"Ehssan Abdulrahman Qaroot";"558054753";"1";"C%PkD2fj&N";"0";"Male";"Field Observer";"Married";"30695228165";"2926";NULL;"General Syndicate of Cars";"1337";"0";"0";"1696746379987";NULL;NULL;NULL;NULL;NULL
"12379";"2019-07-30 00:52:01.093772";"0";"ismael66@windowslive.com";"Ismail  Siraj Shamsaldin";"557607696";"1";"+xMFyt&dvo";"0";"Male";"المتوسطة";"Married";"-4250279384";"2932";"8185021902001337";"مؤسسةاسماعيل سراج شمس الدين للتجارة";"1339";"1";"1";"1596050403904";"79893";"79892";"79891";"2019-07-30 12:59:56.289360";NULL
"12506";"2019-10-10 20:19:37.419152";"0";"jbafail0001@stu.kau.edu.sa";"Jomana Abdullah Bafail";"541877999";"1";"(dhjnuM5F1";"0";"Female";"Graduated";"Single";"838997376328";"2938";NULL;"King Abdulaziz University";"1337";"0";"0";"1602341339608";NULL;NULL;NULL;NULL;NULL
"12443";"2019-08-23 21:57:17.889917";"0";"jj_scorpio@hotmail.com";"Junaid Jawaid";"509143614";"1";"Samsung1!";"0";"Male";"senior manager";"Married";"1465144036957";"2940";"8185021902001368";"savola";"1337";"1";"1";"1598200000375";"710108";"710107";"710106";"2019-08-25 14:51:58.373240";NULL
"12469";"2019-09-11 18:14:55.572819";"0";"jmj@mna-sa.com";"Jehan matouq jamalallil";"533350117";"1";"J6&cL5uIbn";"0";"أنثى";"منسقة خدمة عملاء";"أعزب";"251931600000";"2926";NULL;"شركة المدينة المنورة والعربية لنقل الحجاج";"1337";"0";"0";"1599828219764";NULL;NULL;NULL;NULL;NULL
"12428";"2019-08-16 18:59:40.486874";"0";"kalsaig.c@hotmail.com";"Khalil Adnan Alsaig";"555517414";"1";"w&)4$gy9Oc";"0";"ذكر";"بكالوريوس";"متزوج";"513637200000";;NULL;"الملك عبدالعزيز";"1339";"0";"0";"1597584549070";NULL;NULL;NULL;NULL;NULL
"12467";"2019-09-11 11:37:51.544959";"0";"kh.balobeed@gmail.com";"خالد عيظة محسن";"500188084";"1";"hr0noA)N0q";"0";"Male";"بكالوريس";"Married";"719474871233";"2932";"8185011902001388";"مؤسسة وميض المسك للعطور";"1338";"1";"1";"1599804411666";"710211";"710210";"710209";"2019-09-11 19:17:02.988986";NULL
"12456";"2019-09-06 12:11:00.407410";"0";"koko5550555@hotmail.com";"Kahaled";"508555751";"1";"Erf6nIm(L)";"0";"ذكر";"الخدمات والمساندة";"متزوج";"396392400000";"2926";NULL;"درة المنورة ";"1339";"0";"0";"1693982337861";NULL;NULL;NULL;NULL;NULL
"12444";"2019-08-24 00:12:15.266339";"0";"Kolanloan@gmail.com";"Juniad Jawaid";"0509143614";"1";"Samsung11";"0";"Male";"Senior manager";"Married";"532299600000";"2940";NULL;"Savola";"1337";"0";"0";"1598130000000";NULL;NULL;NULL;NULL;NULL
"12426";"2019-08-14 22:16:31.458613";"0";"ks.203@gmail.com";"علي محمد الشمراني";"0532429001";"1";"ma*bIi+vOj";"0";"ذكر";"ماجستير";"متزوج";"143586000000";;NULL;"جامعة الملك عبدالعزيز";"1351";"0";"0";;NULL;NULL;NULL;NULL;NULL
"12480";"2019-09-23 22:23:19.179084";"0";"ksa0727@hotmail.com";"KHALID ALKATHIRI";"543914841";"1";"GtsIhd!i7v";"0";"ذكر";"كهربائي";"أعزب";"835045200000";;NULL;"الكلية التقنية";"1354";"0";"0";"1600879974488";NULL;NULL;NULL;NULL;NULL
"12468";"2019-09-11 16:40:28.776549";"0";"LAD1@snoodhotels.com";"Mshaal mnhali";"555550197";"1";"2P9@Nnzmkt";"0";"ذكر";"وكيل";"متزوج";"629845200000";"2932";"8185021902001387";"فندق سلطان الصمعاني";"1339";"1";"1";"1599822597238";"710206";"710205";"710204";"2019-09-11 17:20:21.594401";NULL
"12395";"2019-08-03 17:13:53.930485";"1";"m.mubarak@makkahchamber.sa";"Maram A Mubarak";"555538386";"0";"cJ$fG*%8xo";"0";"Female";"Researcher";"Single";"510061433291";;"8185021901000108";"Makkah Chamber";"1339";"1";"1";"1596454992820";"79957";"79956";"79955";"2019-08-04 13:04:13.551526";NULL
"12384";"2019-07-30 17:43:33.516348";"0";"m90w9@hotmail.com";"ملحة سعد ال ياسر";"557564226";"1";"vyneqx&xk1";"0";"Female";"سيدة اعمال";"Married";"647525616064";"2932";"8185021902001342";"مؤسسة ملحة سعد ال ياسر للرخام والحجر";"1339";"1";"1";"1596111074671";"79915";"79914";"79913";"2019-07-30 19:23:18.952662";NULL
"12459";"2019-09-09 14:27:31.510163";"0";"makkah2077@hotmail.com";"صلاح علي السعدي";"555584988";"1";"saJIs#5Ia9";"0";"Male";"مساعد";"Married";"590144250433";"2926";"8185021902001380";"الخمري";"1339";"1";"1";"1599641776357";"710174";"710173";"710172";"2019-09-09 14:34:05.841177";NULL
"12389";"2019-07-31 16:50:51.830547";"0";"malahdal@outlook.sa";"Mohammed hussin al ahdal";"582525080";"1";"E4834K(3ds";"0";"ذكر";"مدير عام ";"أعزب";"664318800000";"2932";"8185021902001346";"مركز سمو الرسالة للتدريب";"1339";"1";"1";"1596194379828";"79933";"79932";"79931";"2019-07-31 16:51:48.951530";NULL
"12408";"2019-08-09 19:03:16.666408";"0";"Maljuffri@hotmail.com";"Mohammed Alawi AlJuffri";"0506365384";"1";"gostgost";"0";"Male";"undergraduate";"Married";"532731600000";"2938";"8185021901000109";"KAU University";"1337";"1";"1";"1597352400000";"710020";"710019";"710018";"2019-08-14 19:51:48.786903";NULL
"12436";"2019-08-20 15:59:24.937139";"0";"mamdoh39@hotmail.com";"ممدوح مبروك الأنصاري";"505906671";"1";"^G3cv#q65C";"0";"Male";"دبلوم علوم عسكريه ";"Married";"-69687035638";"2932";"8185021902001361";"محل ممدوح الانصاري التجاريه ";"1339";"1";"1";"1597919184161";"710062";"710061";"710060";"2019-08-20 16:02:36.381110";NULL
"12397";"2019-08-04 17:10:58.738084";"0";"mbajoh@savola.com";"Mazen Bajoh";"505682310";"1";"okd*mPJuA4";"0";"ذكر";"مدير اول";"متزوج";"316126800000";"2940";"8185021902001353";"Savola";"1337";"1";"1";"1596541119498";"79965";"79964";"79963";"2019-08-04 17:52:44.041935";NULL
"12482";"2019-09-27 14:54:15.856498";"0";"mhddhm21@gmail.com";"Mohamed Ali Alaidros";"557409558";"1";"1234";"0";"Male";"Ba";"Married";"342910800000";"2938";NULL;"Kau";"1337";"0";"0";"1695806553407";NULL;NULL;NULL;NULL;NULL
"12503";"2019-10-10 07:48:35.634013";"0";"modi-69@hotmail.com";"Bayan Ahmed Althagafi";"539004309";"1";"nAbm!F4eFI";"0";"أنثى";"بكالوريس";"متزوج";"816123600000";"2932";"8185021902001411";"ام القرى";"1339";"1";"1";"1602296262401";"710352";"710351";"710350";"2019-10-10 17:51:46.505590";NULL
"12380";"2019-07-30 02:10:31.301746";"0";"Mofaddal@gmail.com";"Mofaddal kamel aleidi";"582994466";"1";"0582994466";"0";"ذكر";"بكالوريوس علاقات عامة";"متزوج";"654642000000";"2931";"8185021902001338";"مؤسسة مفضل العيدي للمقاولات";"1339";"1";"1";"1596055056860";"79897";"79896";"79895";"2019-07-30 13:08:49.439635";NULL
"12418";"2019-08-10 15:32:57.353100";"0";"mohanned_nemer@hotmail.com";"Mohannad talal nemer";"552556788";"1";"M&Hhg-)3*l";"0";"ذكر";"صيانة المحركات";"متزوج";"468277200000";"2938";NULL;"الخطوط السعودية";"1337";"0";"0";"1597053731838";NULL;NULL;NULL;NULL;NULL
"12494";"2019-10-06 18:49:35.379989";"0";"mohitkharshni@gamil.com";"Mohit";"6354942554";"1";"x271r2k(x1";"0";"Male";"Jais";"Single";"1087842600000";;NULL;"Hdidjs";"1350";"0";"0";"1601990356597";NULL;NULL;NULL;NULL;NULL
"12374";"2019-07-28 15:03:29.509080";"0";"MOOLA946@GMAIL.COM";"Amal yahya ";"541385153";"1";"Am0599110088";"0";"أنثى";"مالكه";"أعزب";"970088400000";;NULL;"مؤسسة امل ";"1339";"0";"0";"1690536777012";NULL;NULL;NULL;NULL;NULL
"12375";"2019-07-28 15:10:04.101808";"0";"MOOLA999@GMAIL.COM";"Amalyahya";"541385153";"1";"4bz-kc$Ffj";"0";"أنثى";"مالكه";"أعزب";"970088400000";;NULL;"مؤسسة امل";"1339";"0";"0";"1690537186937";NULL;NULL;NULL;NULL;NULL
"12405";"2019-08-09 17:58:47.402642";"0";"mooode04@gmail.com";"Mohammed ahmed";"590993723";"1";"C3-nM0@D+k";"0";"ذكر";"بكالوريوس";"متزوج";"780094800000";;NULL;"جامعة الملك عبدالعزيز";"1337";"0";"0";"1691584055348";NULL;NULL;NULL;NULL;NULL
"12382";"2019-07-30 14:58:52.801592";"0";"mr.masyrl@hotmail.com";"Mohammed musayri";"544644453";"1";"Masyri1414";"0";"ذكر";"Architect";"أعزب";"759186000000";"2931";"8185021902001340";"Golden Perspective";"1339";"1";"1";"1596101248881";"79906";"79905";"79904";"2019-07-30 15:00:37.911670";NULL
"12366";"2019-07-25 16:50:32.451952";"0";"mr.moh.alamri1984@gmail.com";"محمد سعيد الزهراني ";"0545472266";"1";"(De8ncnljc";"0";"Male";"مدير عام";"Married";"467205632907";"2932";NULL;"سما الإنجاز ";"1339";"0";"0";"1595675979808";NULL;NULL;NULL;NULL;NULL
"12449";"2019-09-03 14:11:31.696141";"0";"msaad-123@hotmail.com";"musaed abdali";"508432041";"1";"0508432041";"0";"Male";"رجل اعمال";"Married";"-261155908789";"2932";"8185021902001371";"مطعم مساعد لتقديم الوجبات";"1339";"1";"1";"1599122449396";"710133";"710132";"710131";"2019-09-03 14:34:03.678057";NULL
"12369";"2019-07-26 19:06:31.449090";"0";"mudarra@almassahotels.com";"MOHAMMAD KHALID MUDARRA ";"570001960";"1";"hjHI5pJ@m(";"0";"Male";"chairman";"Single";"545146589480";;NULL;"AL MASSA";"1339";"0";"0";"1595770541888";NULL;NULL;NULL;NULL;NULL
"12501";"2019-10-09 03:22:54.708389";"0";"n0v@live.se";"عباس عبيد المولد";"555576869";"1";"!^Ppu135hH";"0";"Male";"ثانوي";"Married";"1491256373065";"2931";"8185021902001410";"مؤسسة عباس عبيد المولد ";"1339";"1";"1";"1602193811878";"710345";"710344";"710343";"2019-10-09 13:18:00.897270";NULL
"12376";"2019-07-29 12:32:06.477829";"0";"naif-fa@hotmail.com";"Naif Faisal";"501211136";"1";"F^dd+DJ4Dr";"0";"ذكر";"رجل اعمال";"متزوج";"389221200000";"2932";"8185021902001334";"مؤسسة خيوط المستحيل ";"1339";"1";"1";"1596006095418";"79877";"79876";"79875";"2019-07-29 12:54:40.351765";NULL
"12474";"2019-09-15 02:40:58.451473";"0";"nayla.o.j@hotmail.com";"Nailah omar jaad";"554448661";"1";"CK3(e0rcO9";"0";"أنثى";"مشرفه";"أعزب";"825714000000";"2933";"8185021902001391";"الاصيل بلازا";"1339";"1";"1";"1600117767055";"710227";"710226";"710225";"2019-09-15 12:52:26.960656";NULL
"12446";"2019-08-24 11:45:50.129594";"0";"nn-ff55@hotmail.com";"Naif Muhamd Almalki";"0550133100";"1";"yfCghF-*2q";"0";"Male";"Student";"Married";"181376149387";;NULL;"King Abdulaziz University";"1350";"0";"0";"1598249613630";NULL;NULL;NULL;NULL;NULL
"12488";"2019-10-03 00:02:59.857375";"0";"okjhg90@hotmail.com";"صفيه سعد الناشري ";"502128775";"1";"9swDehE(2O";"0";"Female";"بكالوريوس";"Single";"473365950672";;NULL;"مؤسسة صفيه سعد الناشري للمقاولات العامة ";"1339";"0";"0";"1601663529910";NULL;NULL;NULL;NULL;NULL
"12370";"2019-07-27 18:26:48.950066";"0";"om333om@hotmail.com";"omar abdullah alghamdi";"543059926";"1";"#JL^GB%)$-";"0";"ذكر";"بكالوريوس";"أعزب";"870728400000";;NULL;"جامعة الملك عبدالعزيز";"1337";"0";"0";"1658926475400";NULL;NULL;NULL;NULL;NULL
"12404";"2019-08-09 17:37:22.419234";"0";"Power0man@gmail.com";"Hussain Asaad Alrabighi";"0531309991";"1";"power1379";"0";"ذكر";"بكالوريوس";"أعزب";"673563600000";"2938";"8185021901000111";"جامعه الملك عبدالعزيز";"1337";"1";"1";"1596920400000";"710036";"710035";"710034";"2019-08-18 16:48:34.249049";NULL
"12414";"2019-08-09 23:02:23.263997";"0";"raed.gadah.20@hotmail.com";"رائد إسحاق قدح";"555045606";"1";"0V8h5z21";"0";"ذكر";"بكالوريوس";"أعزب";"789512400000";"2938";"8185021901000112";"جامعة الملك عبد العزيز";"1337";"1";"1";"1597698000000";"710039";"710038";"710037";"2019-08-18 16:53:36.940134";NULL
"12471";"2019-09-12 12:35:13.475281";"0";"rafandi@kinan.com.sa";"راكان جمال افندي";"539077787";"1";"Rakan123456";"0";"Male";"مدير خدمه العملاء";"Married";"529225512756";"2940";"8185021902001392";"كنان للتطوير العقاري";"1337";"1";"1";"1599894177554";"710230";"710229";"710228";"2019-09-15 14:33:02.782560";NULL
"12383";"2019-07-30 15:27:55.976574";"0";"ralsharif@kinan.com.sa";"Raied mansour alsharif";"590001019";"1";"rr#&#&LGt7";"0";"Male";"VP";"Married";"328568400000";"2940";"8185021902001341";"Savola";"1337";"1";"1";"1596103044945";"79910";"79909";"79908";"2019-07-30 16:02:43.484959";NULL
"12378";"2019-07-29 17:35:09.171358";"0";"ramahm@binzcoro.com";"Ramah murad ibrahim";"505616217";"1";"jBhkmJ3I*y";"0";"Female";"Social & Digital Marketing Executive";"Single";"748645200000";"2923";"8185021902001336";"Binzagr CO-RO";"1337";"1";"1";"1596024227578";"79886";"79885";"79884";"2019-07-29 18:11:45.850364";NULL
"12362";"2019-07-25 14:18:49.330053";"0";"rameeee_1984@hotmail.com";"rami mohammed baqadir";"560655552";"1";"ECtCFphF5%";"0";"ذكر";"بكالوريوس";"متزوج";"1572037200000";"2932";"8185021902001323";"بوفية رامي";"1339";"1";"1";"1595666883620";"79820";"79819";"79818";"2019-07-25 14:19:49.838654";NULL
"12371";"2019-07-28 13:14:38.637669";"0";"rawan.baqader@hotmail.com";"Rawan baqader";"569665008";"1";"I0G7P9&Jdp";"0";"أنثى";"سيدة اعمال";"أعزب";"609022800000";"2932";"8185021902001329";"مؤسسة باقادر";"1339";"1";"1";"1595922228243";"79856";"79855";"79854";"2019-07-28 13:17:25.256981";NULL
"12385";"2019-07-31 14:28:57.468281";"0";"reemasalhazmi@gmail.com";"Reem Saleh Alhazmi";"555096150";"1";"Kioy8OG1Bs";"0";"Female";"Researcher ";"Single";"384987600000";"2928";"8185021902001343";"Makkah chamber";"1339";"1";"1";"1596185849351";"79920";"79919";"79918";"2019-07-31 14:37:46.084465";NULL
"12386";"2019-07-31 14:39:33.618434";"0";"rona2bb@outlook.sa";"Rana Kalntan";"542525677";"1";"7mdot0FvLz";"0";"أنثى";"سيدة اعمال";"أعزب";"727131600000";"2932";"8185021902001344";"مؤسسة رنا كلنتن";"1339";"1";"1";"1596186537136";"79924";"79923";"79922";"2019-07-31 14:45:04.533976";NULL
"12400";"2019-08-06 02:36:13.969346";"0";"rubanawaf.20@gmail.com";"Rouba Nawaf Booges";"546661216";"1";"Cs55M1gpjm";"0";"أنثى";"ماجستير ";"أعزب";"592088400000";"2927";"8185021902001355";"غرفة مكة";"1339";"1";"1";"1596661494863";"79975";"79974";"79973";"2019-08-06 13:02:12.768871";NULL
"12367";"2019-07-25 19:42:34.594853";"0";"saad.hadi@alfuttaim.com";"Saad Hadi Alqahtani";"506352112";"1";"@3FB!fesxF";"0";"Male";"بكالوريوس";"Married";"1564063954311";"2929";"8185021902001328";"جامعة الملك عبد العزيز";"1337";"1";"1";"1627222309421";"79852";"79851";"79850";"2019-07-28 13:11:18.632324";NULL
"12496";"2019-10-07 17:11:43.754465";"0";"safimsuallam@gmail.com";"صفيه عوده مسلم";"590172463";"1";"lgd95!maFo";"0";"Female";"شهادة ثانوي";"Single";"753536502576";"2926";NULL;"شركة مآذن ";"1337";"0";"0";"1602070810527";NULL;NULL;NULL;NULL;NULL
"12504";"2019-10-10 14:30:30.383137";"0";"saudalqrni@outlook.com";"Saud mohammed alqarni";"507868612";"1";"@4725L9opA";"0";"Male";"HR";"Married";"733957200000";;NULL;"Savola";"1337";"0";"0";"1602320395712";NULL;NULL;NULL;NULL;NULL
"12417";"2019-08-10 13:37:59.657398";"0";"Somazaid3@gmail.com";"Hussam Yahya Zaid";"561234411";"1";"6!orvbN3fL";"0";"ذكر";"بكالوريوس";"أعزب";"853275600000";"2938";NULL;"جامعة الملك عبدالعزيز";"1337";"0";"0";"1597046817698";NULL;NULL;NULL;NULL;NULL
"12403";"2019-08-09 17:33:38.418007";"0";"sooso2468@gmail.com";"Sohail Ghazi Albaradei";"538290447";"1";"Jf)Nt5Gmf4";"0";"ذكر";"بكلوريوس";"أعزب";"850251600000";;NULL;"جامعة الملك عبدالعزيز";"1337";"0";"0";"1596974595743";NULL;NULL;NULL;NULL;NULL
"12460";"2019-09-09 17:15:55.739846";"0";"soso_s.o.j@hotmail.com";"Sara omar jaad";"555572262";"1";"qIagk+5niy";"0";"أنثى";"اداره";"أعزب";"484002000000";"2933";"8185021902001381";"الاصيل بلازا";"1339";"1";"1";"1599651829657";"710178";"710177";"710176";"2019-09-09 17:26:17.153512";NULL
"12473";"2019-09-14 18:01:51.673879";"0";"sosoowda@hotmail.com";"صفيه عوده مسلم ";"560244663";"1";"poGcsK!nlw";"0";"Female";"الثانوية";"Single";"753539539499";"2926";"8185021902001393";"شركة مآذن ";"1337";"1";"1";"1600086659008";"710233";"710232";"710231";"2019-09-15 14:34:43.011749";NULL
"12478";"2019-09-17 21:04:11.655212";"0";"sosy_20@hotmail.com";"Suhad omar jaad";"555055661";"1";")0Nrb8^k)#";"0";"أنثى";"جامعيه";"متزوج";"532040400000";"2933";"8185021902001396";"مؤسسه الاصيل للحراسات الامنيه";"1337";"1";"1";"1600356736505";"710256";"710255";"710254";"2019-09-18 14:57:43.249038";NULL
"12466";"2019-09-11 04:17:41.929338";"0";"ss-ss-07@hotmail.com";"YAHAYA MOHMMED ALAHMARI";"536606251";"1";"nNEPeHd1D#";"0";"ذكر";"دبلوم هندسة معمارية";"أعزب";"726613200000";"2926";"8185021902001386";"شركة النقل الجماعي";"1352";"1";"1";"1599777888346";"710201";"710200";"710199";"2019-09-11 14:15:10.325692";NULL
"12477";"2019-09-16 12:11:38.798454";"0";"ssw.alwafi@gmail.com";"Nawal almuhmady";"595959158";"1";"3yyLPCsL(9";"0";"أنثى";"سيدة اعمال";"متزوج";"244155600000";"2932";"8185021902001395";"مشغل نوال احمدالمحمادي النسائي";"1339";"1";"1";"1600238481268";"710244";"710243";"710242";"2019-09-16 13:09:58.124544";NULL
"12391";"2019-08-01 15:51:13.690546";"0";"suhaalahli@gmail.com";"Suha Ibraheem";"563757244";"1";"Pq12NbBo-l";"0";"Female";"00";"Single";"879800400000";;"8185021901000115";"00";"1337";"1";"1";"1596276573223";"710114";"710113";"710112";"2019-08-25 15:31:18.957967";NULL
"12433";"2019-08-19 15:03:57.642486";"0";"szagzoog24@icloud.com";"Saad Abdulaziz Zakzouk";"566576662";"1";"kqK7OcwK^a";"0";"ذكر";"رئيس مجلس إدارة ";"أعزب";"684104400000";"2933";"8185021902001359";"شركة الوصال العربية للتجارة والمقاولات";"1339";"1";"1";"1597829392098";"710047";"710046";"710045";"2019-08-19 15:05:09.467990";NULL
"12390";"2019-08-01 13:56:25.089237";"0";"ta.wf.eeg@hotmail.com";"توفيق راشد النمري";"555518054";"1";"0555518054";"0";"Male";"مدير مكتب رئيس عام النقابة";"Married";"315522000000";"2926";"8185021902001347";"النقابة العامة للسيارات";"1339";"1";"1";"1596229200000";"79937";"79936";"79935";"2019-08-01 13:56:25.104233";NULL
"12441";"2019-08-22 14:54:16.133019";"0";"tarkd6556@gmail.com";"طارق محمد عبدالله الحربي";"0540332339";"1";"OFvx68GmPM";"0";"Male";"رجل اعمال";"Married";"716331600000";"2932";"8185021902001366";"مؤسسة دالين للكوش والهدايا";"1339";"1";"1";"1598043600000";"710086";"710085";"710084";"2019-08-22 15:29:32.478708";NULL
"12481";"2019-09-26 18:05:07.154748";"0";"town-power@hotmail.com";"Abdullah Mohammed Alkhulayfi";"555563037";"1";"Abod1405";"0";"ذكر";"مدير مجلس الاداره ";"متزوج";"485816400000";"2931";"8185021902001398";"تاون بور للمقاولات";"1339";"1";"1";"1601123581225";"710271";"710270";"710269";"2019-09-26 18:07:08.697752";NULL
"12447";"2019-08-25 01:32:19.484753";"0";"walameen@yahoo.com";"Wafaa Alameen";"501292767";"1";"GzG+B8y-c%";"0";"Female";"admission ";"Married";"117403340400";"2935";"8185021902001369";"Yamamah University ";"1337";"1";"1";"1598299255336";"710111";"710110";"710109";"2019-08-25 15:28:15.053602";NULL
"12372";"2019-07-28 13:51:54.694715";"1";"waleednaser20@gmail.co";"Noof  Naser Alshreef";"545197920";"0";"7$(MEE!3$@";"0";"Female";"سيدة اعمال";"Married";"775342800000";"2932";"8185021902001330";"مؤسسة رؤيا الإبداع للدعاية و الاعلان";"1339";"1";"1";"1595924490657";"79860";"79859";"79858";"2019-07-28 14:17:00.478026";NULL
"12373";"2019-07-28 14:47:07.946320";"0";"waleednaser20@gmail.com";"Noof Naser Alshareef";"545197920";"1";"&r4%FMfype";"0";"Female";"سيدة اعمال";"Married";"775342800000";"2932";"8185021902001332";"مؤسسة رؤيا الابداع للدعاية و الاعلان";"1339";"1";"1";"1595883600000";"79868";"79867";"79866";"2019-07-28 14:47:07.960963";NULL
"12495";"2019-10-07 12:02:28.715130";"0";"ybalkheyour@savola.com";"Yasir Balkheyour";"555620620";"1";"96149614";"0";"Male";"Investment Manager";"Single";"666651600000";"2940";"8185021902001406";"Savola Group";"1337";"1";"1";"1602052299886";"710325";"710324";"710323";"2019-10-07 13:05:20.387581";NULL
"12448";"2019-08-25 17:57:03.971952";"0";"ytalbi@savola.com";"Yahya Abdullah Talibi";"0599949521";"1";"AynA7xh+7B";"0";"Male";"Mechanical";"Married";"382827600000";"2940";"8185021902001370";"united sugar company";"1337";"1";"1";"1598302800000";"710119";"710118";"710117";"2019-08-25 18:08:02.648319";NULL
"12493";"2019-10-06 03:17:55.482327";"0";"ywaheed@savola.com";"yousuf waheed";"549420103";"1";"0549420103";"0";"Male";"senior manager";"Married";"572132873905";"2940";"8185021902001405";"savola group";"1337";"1";"1";"1601934364006";"710314";"710313";"710312";"2019-10-06 13:54:10.426215";NULL
