"name";"creation";"modified";"modified_by";"owner";"docstatus";"parent";"parentfield";"parenttype";"idx";"_liked_by";"title";"deleted";"_comments";"vendor_logo_id";"_assign";"social_media_facebook";"social_media_instagram";"contact_no";"social_media_twitter";"active";"_user_tags";"social_media_google_plus";"website_link";"category_id";"category_name";"address";"email_id";"title_in_arabic";"contact_person_mobile_number";"contact_person_name";"contact_person_emailid"
"5726";"2019-10-06 17:49:18.114985";"2019-10-06 17:49:18.114985";"Guest";"Guest";"0";NULL;NULL;NULL;"1";NULL;"Eat Chinese";"0";NULL;"710319";NULL;"https://www.facebook.com/EatChineseKSA";"https://www.instagram.com/eatchineseksa";;"https://twitter.com/eatchineseksa?lang=en";"1";NULL;;;"425";"Food";"Jeddah";;"إيت شاينيز";"0565688854";"Awad Abu Alzoor";"najjarmm@gmail.com"
"5725";"2019-10-06 15:44:00.945452";"2019-10-06 15:44:00.945452";"Guest";"Guest";"0";NULL;NULL;NULL;"1";NULL;"IT Cafe";"0";NULL;"710315";NULL;;;;"https://twitter.com/italiantouch_sa?lang=en";"1";NULL;;"https://www.facebook.com/pages/category/Coffee-Shop/Italian-Touch-SA-1620631061504124/";"425";"Food";"Jeddah";;"مقهى ايتاليان تاتش";"0508568159";"0508568159";"walid.alhashah@noonunited.com"
"5724";"2019-10-03 14:13:07.921249";"2019-10-03 14:13:07.921249";"Guest";"Guest";"0";NULL;NULL;NULL;"1";NULL;"Rai Restaurant";"0";NULL;"710301";NULL;;;;;"1";NULL;;;"425";"Food";"Jeddah";;"مطعم راي";"0508568159";"Walid Hashash";"walid.alhashah@noonunited.com"
"5723";"2019-09-29 18:39:01.692225";"2019-10-03 13:59:39.649757";"Guest";"Guest";"0";NULL;NULL;NULL;"1";NULL;"Rosso Restaurant";"0";NULL;"710300";NULL;"https://www.facebook.com/RossopomodoroSA";;;"https://twitter.com/rossopomodorosa?lang=en";"0";NULL;;;"425";"Food";"Jeddah";;"مطعم روسو";"0508568159";"Walid Hashash";"walid.alhashah@noonunited.com"
"5722";"2019-09-18 14:57:27.033380";"2019-09-18 14:57:27.033380";"Guest";"Guest";"0";NULL;NULL;NULL;"4";NULL;"Crave Burger";"0";NULL;"710253";NULL;"https://www.facebook.com/pages/Crave/539134996237381";"https://www.instagram.com/crave_ksa";;"https://twitter.com/crave_ksa?lang=en";"1";NULL;;;"425";"Food";"Saudi Arabia";;"كريف برجر";"0562899939";"Awse Justanieah";"awse@foodspeco.com"
"5721";"2019-09-16 17:22:09.179065";"2019-09-16 17:22:09.179065";"Guest";"Guest";"0";NULL;NULL;NULL;"3";NULL;"The Burger Truck";"0";NULL;"710248";NULL;"https://www.facebook.com/BurgerTruckJeddah";"https://www.instagram.com/burger_truck_jeddah";;;"1";NULL;;"http://www.burgertruck.net";"425";"Food";"Jeddah";;"برجر ترك";"0554545808";"Mohanned Kaki";"moh-ka3ki@hotmail.com"
"5720";"2019-09-16 15:59:51.923882";"2019-09-16 16:03:33.317335";"Guest";"Guest";"0";NULL;NULL;NULL;"1";NULL;"Qatarat Cafe";"0";NULL;"710246";NULL;"https://www.facebook.com/qataratcafe";"https://www.instagram.com/qataratcafe";;"https://twitter.com/qataratcafe?lang=en";"1";NULL;;;"425";"Food";"Jeddah";;"مقهى قطرات";"0505609662/0530503666";"Basma Yamani";"basma_yamani@hotmail.com"
"5719";"2019-08-22 17:57:03.005018";"2019-08-22 17:57:03.005018";"Guest";"Guest";"0";NULL;NULL;NULL;"1";NULL;"AVVA";"0";NULL;"710093";NULL;"https://www.facebook.com/Avvaofficial";;;;"1";NULL;;"https://www.avva.com.tr";"432";"Shopping";"Jeddah";;"آفا";"0506878878";"Basil Abdulghani";"bslkh@hotmail.com"
"5718";"2019-08-06 15:23:08.285263";"2019-09-19 14:12:37.104623";"Guest";"Guest";"0";NULL;NULL;NULL;"13";NULL;"Nice One";"0";NULL;"79976";NULL;"https://www.facebook.com/niceonesa/about";"https://www.instagram.com/niceonesa";;"https://twitter.com/NICEONESA";"1";NULL;;"https://niceonesa.com/en";"432";"Shopping";"Saudi Arabia";;"نايس ون";"0504737709";"Sahab Althaydi";"sahabalthaydi@niceonesa.com"
"5717";"2019-07-30 17:41:45.674851";"2019-07-30 17:41:45.674851";"Guest";"Guest";"0";NULL;NULL;NULL;"3";NULL;"Dr. Nutrition";"0";NULL;"79911";NULL;"https://www.facebook.com/dnpface";"https://www.instagram.com/dnpdubai";;"https://twitter.com/dnp2001";"1";NULL;;"https://www.drnutrition.com/";"428";"Health";"Saudi Arabia";;"دكتور نيوتريشن";"0547282419";"Mohammed Almahdi";"almahdy.dnp@gmail.com"
"5716";"2019-07-29 15:36:08.008369";"2019-07-29 15:36:08.008369";"Guest";"Guest";"0";NULL;NULL;NULL;"49";NULL;"Boudl Hotels & Resorts";"0";NULL;"79882";NULL;"https://www.facebook.com/boudl.hotels.resorts";"https://www.instagram.com/braira_hotels";;"https://twitter.com/BoudlHotels";"1";NULL;;"http://boudl.com/";"423";"Travel";"Saudi Arabia";;"بودل للفنادق والمنتجعات";"0583093089";"Islam Bader";"sales3@boudl.com"
"5715";"2019-07-25 18:19:05.707206";"2019-07-25 18:23:25.161196";"Guest";"Guest";"0";NULL;NULL;NULL;"1";NULL;"AlHamra Sports Center";"0";NULL;"79841";NULL;;"https://www.instagram.com/al_hamra_gym_jeddah";;;"1";NULL;;;"428";"Health";"Jeddah, Saudi Arabia";;"مركز واحة الحمراء الرياضي";"0541066178";"Osama Abu Kwaik";"osamah_abukwaik@hotmail.com"
